%YAML 1.1
%TAG !u! tag:unity3d.com,2011:
--- !u!114 &-3497577667043620542
MonoBehaviour:
  m_ObjectHideFlags: 11
  m_CorrespondingSourceObject: {fileID: 0}
  m_PrefabInstance: {fileID: 0}
  m_PrefabAsset: {fileID: 0}
  m_GameObject: {fileID: 0}
  m_Enabled: 1
  m_EditorHideFlags: 0
  m_Script: {fileID: 11500000, guid: d0353a89b1f911e48b9e16bdc9f2e058, type: 3}
  m_Name: 
  m_EditorClassIdentifier: 
  version: 4
--- !u!21 &2100000
Material:
  serializedVersion: 6
  m_ObjectHideFlags: 0
  m_CorrespondingSourceObject: {fileID: 0}
  m_PrefabInstance: {fileID: 0}
  m_PrefabAsset: {fileID: 0}
  m_Name: ocean
  m_Shader: {fileID: -6465566751694194690, guid: a9aea49e19495174f80f910ddb189a37, type: 3}
  m_ShaderKeywords: FOAM_SHADOWS_ON INTERSECTION_EFFECTS_ON SURFACE_FOAM_ON WATER_LIGHTING_ON
    WORLD_SPACE_UV_ON _GLOSSYREFLECTIONS_OFF
  m_LightmapFlags: 4
  m_EnableInstancingVariants: 0
  m_DoubleSidedGI: 0
  m_CustomRenderQueue: 3000
  stringTagMap: {}
  disabledShaderPasses: []
  m_SavedProperties:
    serializedVersion: 3
    m_TexEnvs:
    - _BaseMap:
        m_Texture: {fileID: 0}
        m_Scale: {x: 1, y: 1}
        m_Offset: {x: 0, y: 0}
    - _BumpMap:
        m_Texture: {fileID: 0}
        m_Scale: {x: 1, y: 1}
        m_Offset: {x: 0, y: 0}
    - _CausticsTexture:
        m_Texture: {fileID: 2800000, guid: f2c40b951cee11943a1f6d5ec1b42f2c, type: 3}
        m_Scale: {x: 1, y: 1}
        m_Offset: {x: 0, y: 0}
    - _DetailAlbedoMap:
        m_Texture: {fileID: 0}
        m_Scale: {x: 1, y: 1}
        m_Offset: {x: 0, y: 0}
    - _DetailMask:
        m_Texture: {fileID: 0}
        m_Scale: {x: 1, y: 1}
        m_Offset: {x: 0, y: 0}
    - _DetailNormalMap:
        m_Texture: {fileID: 0}
        m_Scale: {x: 1, y: 1}
        m_Offset: {x: 0, y: 0}
    - _EmissionMap:
        m_Texture: {fileID: 0}
        m_Scale: {x: 1, y: 1}
        m_Offset: {x: 0, y: 0}
    - _IntersectionFoamTexture:
        m_Texture: {fileID: 2800000, guid: 772031b03d9d46e4ab03e15c8e17718c, type: 3}
        m_Scale: {x: 1, y: 1}
        m_Offset: {x: 0, y: 0}
    - _MainTex:
        m_Texture: {fileID: 0}
        m_Scale: {x: 1, y: 1}
        m_Offset: {x: 0, y: 0}
    - _MetallicGlossMap:
        m_Texture: {fileID: 0}
        m_Scale: {x: 1, y: 1}
        m_Offset: {x: 0, y: 0}
    - _NormalsTexture:
        m_Texture: {fileID: 2800000, guid: a41da5f5671718b47bbc71e9ef691103, type: 3}
        m_Scale: {x: 1, y: 1}
        m_Offset: {x: 0, y: 0}
    - _OcclusionMap:
        m_Texture: {fileID: 0}
        m_Scale: {x: 1, y: 1}
        m_Offset: {x: 0, y: 0}
    - _ParallaxMap:
        m_Texture: {fileID: 0}
        m_Scale: {x: 1, y: 1}
        m_Offset: {x: 0, y: 0}
    - _SpecGlossMap:
        m_Texture: {fileID: 0}
        m_Scale: {x: 1, y: 1}
        m_Offset: {x: 0, y: 0}
    - _SurfaceFoamTexture:
        m_Texture: {fileID: 2800000, guid: d3b0d77dfe711a04c8ff18ecc260aa66, type: 3}
        m_Scale: {x: 1, y: 1}
        m_Offset: {x: 0, y: 0}
    - _WaterColorGradientTexture:
        m_Texture: {fileID: 0}
        m_Scale: {x: 1, y: 1}
        m_Offset: {x: 0, y: 0}
    - unity_Lightmaps:
        m_Texture: {fileID: 0}
        m_Scale: {x: 1, y: 1}
        m_Offset: {x: 0, y: 0}
    - unity_LightmapsInd:
        m_Texture: {fileID: 0}
        m_Scale: {x: 1, y: 1}
        m_Offset: {x: 0, y: 0}
    - unity_ShadowMasks:
        m_Texture: {fileID: 0}
        m_Scale: {x: 1, y: 1}
        m_Offset: {x: 0, y: 0}
    m_Floats:
    - FOAM_SHADOWS: 1
    - INTERSECTION_EFFECTS: 1
    - REFRACTION: 0
    - SHORE_MOVEMENT: 0
    - SURFACE_FOAM: 1
    - WATER_LIGHTING: 1
    - WORLD_SPACE_UV: 1
    - _AlphaClip: 0
    - _Blend: 0
    - _BumpScale: 1
    - _CausticsDepth: 0.6
    - _CausticsScale: 2.41
    - _CausticsShadowMask: 1
    - _CausticsSpeed: 0.219
    - _CausticsSplit: 0.318
    - _CausticsStrength: 2.09
    - _ClearCoatMask: 0
    - _ClearCoatSmoothness: 0
    - _Cull: 2
    - _Cutoff: 0.5
    - _DetailAlbedoMapScale: 1
    - _DetailNormalMapScale: 1
    - _DstBlend: 0
    - _EnvironmentReflections: 1
    - _FoamShadowDepth: 10
    - _FoamShadowStrength: 0.45
    - _GlossMapScale: 0
    - _Glossiness: 0
    - _GlossyReflections: 0
    - _IntersectionFoamBlend: 1
    - _IntersectionFoamDepth: 0.72
    - _IntersectionFoamScale: 0.19
    - _IntersectionFoamShadowProjection: 4.6
    - _IntersectionWaterBlend: 0
    - _LightingHardness: 0
    - _LightingSmoothness: 1
    - _Metallic: 0
    - _Mode: 0
    - _NormalsStrength: 0.29
    - _OcclusionStrength: 1
    - _Parallax: 0.005
    - _PlanarReflectionFresnel: 0
    - _PlanarReflectionStrength: 0
    - _QueueOffset: 0
    - _ReceiveShadows: 1
    - _RefractionStrength: 0.005
    - _ShoreBlend: 0
    - _ShoreDepth: 3
    - _ShoreFade: 0.391
    - _ShoreFoamBreakupScale: 0
    - _ShoreFoamBreakupStrength: 0
    - _ShoreFoamFrequency: 0
    - _ShoreFoamSpeed: 0
    - _ShoreFoamWidth: 0
    - _Smoothness: 0.5
    - _SmoothnessTextureChannel: 0
    - _SpecularHighlights: 1
    - _SrcBlend: 1
    - _Surface: 0
    - _SurfaceFoamBlend: 1
    - _SurfaceFoamHeightMask: 0
    - _SurfaceFoamHeightMaskSmoothness: 0
    - _SurfaceFoamShadowProjection: 15
    - _UVSec: 0
    - _UnderwaterRefractionStrength: 0.099
    - _WaterColorDepth: 3.5
    - _WaterColorHorizonDistance: 5
    - _WorkflowMode: 1
    - _ZWrite: 1
    m_Colors:
    - _BaseColor: {r: 1, g: 1, b: 1, a: 1}
    - _Color: {r: 1, g: 1, b: 1, a: 1}
    - _EmissionColor: {r: 0, g: 0, b: 0, a: 1}
    - _IntersectionFoamColor: {r: 1, g: 1, b: 1, a: 1}
    - _IntersectionFoamMovement: {r: 0, g: 0, b: 0, a: 0}
    - _IntersectionFoamSampling: {r: 1, g: 0, b: 0, a: 0}
    - _LightingDiffuseColor: {r: 0, g: 0, b: 0, a: 0}
    - _LightingSpecularColor: {r: 1, g: 1, b: 1, a: 0}
    - _NormalsMovement: {r: 0.1, g: 0.5, b: 0, a: 0}
    - _ShoreColor: {r: 0.8301887, g: 0.82633543, b: 0.25448763, a: 0}
    - _SpecColor: {r: 0.2, g: 0.2, b: 0.2, a: 1}
    - _SurfaceFoamColor1: {r: 1, g: 1, b: 1, a: 0.16862746}
    - _SurfaceFoamColor2: {r: 0.14146063, g: 0.14146063, b: 0.14146063, a: 0.38431373}
    - _SurfaceFoamMovement: {r: 0.75, g: 0.05, b: 0.47, a: 0.1}
    - _SurfaceFoamSampling: {r: 1, g: 1, b: 0, a: 0}
    - _SurfaceFoamTilingAndOffset: {r: -1, g: -1, b: 0.5, a: 0.25}
    - _WaterColorDeep: {r: 0, g: 0.62820506, b: 1, a: 0.8}
    - _WaterColorHorizon: {r: 0, g: 0.25199118, b: 0.9150943, a: 0.8}
    - _WaterColorShallow: {r: 0.43170783, g: 0.73897123, b: 0.9245283, a: 0.8}
    - _WaterColorUnderwater: {r: 0.2038979, g: 0.3097789, b: 0.517647, a: 0}
    - _WaveColor: {r: 0.07543447, g: 0.07543447, b: 0.07543447, a: 0}
    - _WaveDirections: {r: 0.18, g: 0.425, b: 0.822, a: 0.379}
    - _WaveVisuals: {r: 0.103528686, g: 15, b: 2.5, a: 0}
  m_BuildTextureStacks: []
